<svg width="23" height="27" viewBox="0 0 23 27" fill="none" xmlns="http://www.w3.org/2000/svg">
<path d="M19.9174 11.4391L19.119 10.8939C20.0533 9.51781 20.5973 7.9143 20.6933 6.25377C20.7893 4.59323 20.4337 2.93771 19.6642 1.46311L19.5018 1.16731L20.3447 0.691711L20.5187 1.01458C21.3701 2.64416 21.764 4.47403 21.6585 6.3096C21.553 8.14518 20.9519 9.91785 19.9193 11.4391H19.9174ZM22.1466 25.2257V26.0667H0.879883V25.2257H5.69002L8.68475 11.3734C8.7312 11.1571 8.85039 10.9634 9.02243 10.8244C9.19448 10.6854 9.40898 10.6096 9.63015 10.6097H11.0318V7.89724C10.5496 7.78522 10.1192 7.51412 9.80983 7.12762C9.50049 6.74113 9.33028 6.26174 9.32662 5.76671C9.31782 5.46756 9.36914 5.16968 9.47755 4.89072C9.58596 4.61176 9.74924 4.35739 9.95773 4.14267C10.1662 3.92796 10.4157 3.75727 10.6913 3.64071C10.967 3.52415 11.2632 3.46409 11.5625 3.46409C11.8618 3.46409 12.158 3.52415 12.4337 3.64071C12.7093 3.75727 12.9588 3.92796 13.1673 4.14267C13.3758 4.35739 13.5391 4.61176 13.6475 4.89072C13.7559 5.16968 13.8072 5.46756 13.7984 5.76671C13.7942 6.27765 13.6125 6.77124 13.2845 7.16305C12.9566 7.55486 12.5026 7.82054 12.0004 7.91464V10.6116H13.3944C13.6156 10.611 13.8303 10.6863 14.0027 10.825C14.1751 10.9636 14.2948 11.1572 14.3417 11.3734L17.3326 25.2257H22.1466ZM13.3441 15.9186H9.68235L9.05788 18.8051H13.9705L13.3441 15.9186ZM8.84715 19.7718L8.22268 22.6621H14.8018L14.1774 19.7718H8.84715ZM10.4093 12.545L9.88728 14.952H13.1353L12.6152 12.545H10.4093ZM7.66782 25.2276H15.3567L15.0106 23.6288H8.01195L7.66782 25.2276ZM7.07235 8.69184C6.4947 7.81502 6.1894 6.78688 6.19491 5.7369C6.20041 4.68691 6.51647 3.66203 7.10328 2.79131L6.30288 2.24998C5.60874 3.27879 5.23482 4.49012 5.22828 5.73118C5.22174 6.97224 5.58288 8.18745 6.26615 9.22351L7.07235 8.69184ZM17.7966 5.76671C17.7978 4.5395 17.4388 3.33891 16.7642 2.31378L15.956 2.84544C16.5323 3.72224 16.8364 4.74985 16.8302 5.79904C16.824 6.84823 16.5078 7.87218 15.9212 8.74211L16.7216 9.27958C17.4236 8.24268 17.7981 7.01889 17.7966 5.76671ZM3.83208 10.8282C2.89595 9.40529 2.37269 7.75069 2.32047 6.04827C2.26825 4.34586 2.68912 2.6623 3.53628 1.18471L2.69915 0.701378C1.76238 2.33477 1.29713 4.19603 1.35516 6.07808C1.41318 7.96014 1.99221 9.7892 3.02782 11.3618L3.83208 10.8282Z" fill="white"/>
</svg>
