<svg width="19" height="17" viewBox="0 0 19 17" fill="none" xmlns="http://www.w3.org/2000/svg">
<path d="M17.4025 4.33487L10.2424 0.797271C10.0113 0.683929 9.75737 0.625 9.5 0.625C9.24263 0.625 8.98868 0.683929 8.75762 0.797271L1.59752 4.33487C1.21197 4.52193 0.886932 4.81383 0.659656 5.17713C0.432379 5.54042 0.312064 5.9604 0.312501 6.38893V13.9608C0.312501 15.2274 1.35512 16.2577 2.63686 16.2577H16.3631C17.6449 16.2577 18.6875 15.2274 18.6875 13.9608V6.38893C18.6879 5.9604 18.5676 5.54042 18.3403 5.17713C18.1131 4.81383 17.788 4.52193 17.4025 4.33487V4.33487ZM9.35152 1.97114C9.39774 1.94847 9.44853 1.93668 9.5 1.93668C9.55147 1.93668 9.60226 1.94847 9.64848 1.97114L16.5957 5.40251L9.54102 8.88883C9.4948 8.9115 9.44401 8.92329 9.39254 8.92329C9.34107 8.92329 9.29028 8.9115 9.24406 8.88883L2.29561 5.45706L9.35152 1.97114Z" fill="#3B4B5C"/>
</svg>
