<svg width="13" height="20" viewBox="0 0 13 20" fill="none" xmlns="http://www.w3.org/2000/svg">
<path d="M11.7109 19.2574C11.8731 19.0955 12.0018 18.9032 12.0896 18.6915C12.1775 18.4798 12.2227 18.2528 12.2227 18.0237C12.2227 17.7945 12.1775 17.5675 12.0896 17.3558C12.0018 17.1441 11.8731 16.9518 11.7109 16.7899L4.92088 9.9999L11.7109 3.2099C12.0381 2.88269 12.2219 2.4389 12.2219 1.97615C12.2219 1.5134 12.0381 1.06961 11.7109 0.742397C11.3837 0.415186 10.9399 0.231365 10.4771 0.231365C10.0144 0.231365 9.57059 0.415186 9.24338 0.742397L1.21088 8.7749C1.04865 8.9368 0.91994 9.1291 0.832123 9.34081C0.744306 9.55251 0.699104 9.77945 0.699104 10.0086C0.699104 10.2378 0.744305 10.4648 0.832123 10.6765C0.91994 10.8882 1.04865 11.0805 1.21088 11.2424L9.24338 19.2749C9.90838 19.9399 11.0284 19.9399 11.7109 19.2574Z" fill="white"/>
</svg>
