<svg width="124" height="47" viewBox="0 0 124 47" fill="none" xmlns="http://www.w3.org/2000/svg">
<path d="M62.23 22.1172C62.23 23.1328 61.9435 23.9271 61.3706 24.5C60.8029 25.0729 60.0503 25.3594 59.1128 25.3594C58.2743 25.3594 57.5685 25.0547 56.9956 24.4453C56.4227 23.8307 56.1362 23.0599 56.1362 22.1328C56.1362 21.5182 56.2873 20.987 56.5894 20.5391C56.8914 20.0911 57.4175 19.6406 58.1675 19.1875L58.6987 18.8672L57.644 17.6797H59.4644L61.3237 19.7812C61.5998 20.0885 61.8185 20.4349 61.98 20.8203C62.1466 21.2005 62.23 21.6328 62.23 22.1172ZM60.3628 23.4688C60.5399 23.3125 60.6805 23.1328 60.7847 22.9297C60.8888 22.7266 60.9409 22.4557 60.9409 22.1172C60.9409 21.8203 60.7977 21.4583 60.5112 21.0312C60.23 20.6042 59.9357 20.2188 59.6284 19.875L59.4644 19.6953L58.9409 20.0156C58.4982 20.2812 58.1362 20.5807 57.855 20.9141C57.5737 21.2422 57.4331 21.6432 57.4331 22.1172C57.4331 22.5807 57.5998 22.9922 57.9331 23.3516C58.2716 23.7109 58.6649 23.8906 59.1128 23.8906C59.3211 23.8906 59.5425 23.8542 59.7769 23.7812C60.0112 23.7083 60.2065 23.6042 60.3628 23.4688ZM71.6987 25.2656H71.269C70.7482 25.2656 70.2899 25.1693 69.894 24.9766C69.5034 24.7786 69.1883 24.5026 68.9487 24.1484C68.6154 24.5182 68.2534 24.7969 67.8628 24.9844C67.4774 25.1719 67.0711 25.2656 66.644 25.2656C65.8888 25.2656 65.1909 25.2656 64.5503 25.2656C63.9097 25.2656 63.5633 25.2656 63.5112 25.2656V23.7969H66.5815C66.894 23.7969 67.1701 23.7552 67.4097 23.6719C67.6493 23.5885 67.8368 23.474 67.9722 23.3281C68.0972 23.1875 68.1831 23.0417 68.23 22.8906C68.2821 22.7396 68.3081 22.5807 68.3081 22.4141C68.3081 22.362 68.2951 22.2786 68.269 22.1641C68.2482 22.0495 68.2196 21.9219 68.1831 21.7812L66.9644 17.6641H68.4878L69.5425 21.3906C69.6258 21.6875 69.7222 22.0078 69.8315 22.3516C69.9409 22.6953 70.0425 22.9531 70.1362 23.125C70.256 23.3333 70.4019 23.4974 70.5737 23.6172C70.7456 23.737 70.967 23.7969 71.2378 23.7969H71.6987V25.2656ZM75.1362 21.7266C75.1362 22.8359 74.8732 23.7031 74.3472 24.3281C73.8211 24.9531 73.0972 25.2656 72.1753 25.2656H71.1519V23.7969H72.2144C72.7456 23.7969 73.1493 23.6068 73.4253 23.2266C73.7013 22.8464 73.8394 22.3151 73.8394 21.6328V19.6641H75.1362V21.7266ZM74.2925 17.7031H73.1362V16.5469H74.2925V17.7031ZM81.3315 23.8125C81.3263 24.7969 81.1805 25.5964 80.894 26.2109C80.6076 26.8255 80.0972 27.3438 79.3628 27.7656C78.7378 28.099 78.1701 28.3177 77.6597 28.4219C77.1493 28.526 76.6571 28.5781 76.1831 28.5781V27.1094C76.5216 27.1094 76.8966 27.0755 77.3081 27.0078C77.7196 26.9453 78.1466 26.8099 78.5894 26.6016C79.1102 26.3255 79.4722 25.9688 79.6753 25.5312C79.8836 25.099 79.9878 24.6094 79.9878 24.0625C79.9878 23.6146 79.8993 23.1589 79.7222 22.6953C79.5503 22.2318 79.3133 21.776 79.0112 21.3281V21.2344H80.519C80.7222 21.6042 80.9071 22.0156 81.0737 22.4688C81.2456 22.9219 81.3315 23.3698 81.3315 23.8125ZM79.9644 19.3906H78.8081V18.2344H79.9644V19.3906ZM107.714 25.2656H106.785C106.457 25.2656 106.095 25.1719 105.699 24.9844C105.308 24.7917 105.022 24.5495 104.839 24.2578C104.589 24.6016 104.279 24.8646 103.91 25.0469C103.545 25.224 103.097 25.3125 102.566 25.3125C102.165 25.3125 101.769 25.2422 101.378 25.1016C100.993 24.9609 100.707 24.7708 100.519 24.5312C100.222 24.776 99.9175 24.9688 99.605 25.1094C99.2925 25.2448 98.8602 25.3125 98.3081 25.3125C97.9175 25.3125 97.5451 25.263 97.1909 25.1641C96.8368 25.0651 96.5633 24.9453 96.3706 24.8047C96.2925 25.8568 95.8211 26.7474 94.9565 27.4766C94.0972 28.2109 93.0373 28.5781 91.7769 28.5781C91.1727 28.5781 90.6154 28.5026 90.105 28.3516C89.5946 28.2005 89.1623 27.9635 88.8081 27.6406C88.4539 27.3177 88.1805 26.8984 87.9878 26.3828C87.7951 25.8672 87.6987 25.2552 87.6987 24.5469C87.6987 24.026 87.73 23.5104 87.7925 23C87.8602 22.4896 87.8993 22.2005 87.9097 22.1328H89.3315V22.2578C89.2743 22.4505 89.2039 22.7839 89.1206 23.2578C89.0373 23.7266 88.9956 24.1615 88.9956 24.5625C88.9956 25.3698 89.2248 25.9948 89.6831 26.4375C90.1466 26.8854 90.8446 27.1094 91.7769 27.1094C92.855 27.1094 93.6727 26.8255 94.23 26.2578C94.7925 25.6901 95.0737 24.8411 95.0737 23.7109C95.0737 23.2734 95.0607 22.7552 95.0347 22.1562C95.0086 21.5521 94.9904 21.1693 94.98 21.0078H96.3706C96.3706 22.0755 96.5295 22.8151 96.8472 23.2266C97.1701 23.638 97.6571 23.8438 98.3081 23.8438C98.881 23.8438 99.3107 23.6771 99.5972 23.3438C99.8888 23.0052 100.035 22.5312 100.035 21.9219V21.0078H101.332V22.1797C101.332 22.7214 101.449 23.1354 101.683 23.4219C101.917 23.7031 102.217 23.8438 102.582 23.8438C103.165 23.8438 103.584 23.6745 103.839 23.3359C104.1 22.9922 104.23 22.4401 104.23 21.6797V19.6641H105.527V21.6953C105.527 22.4193 105.662 22.9505 105.933 23.2891C106.209 23.6276 106.61 23.7969 107.136 23.7969H107.714V25.2656ZM97.5972 19.0078H96.4409V17.8516H97.5972V19.0078ZM99.9097 19.0078H98.7534V17.8516H99.9097V19.0078ZM98.7534 17.375H97.5972V16.2188H98.7534V17.375ZM113.878 23.5703C112.733 24.0755 111.662 24.4844 110.667 24.7969C109.678 25.1094 108.907 25.2656 108.355 25.2656H107.152V23.7969H108.386C109.11 23.7969 110.123 23.5755 111.425 23.1328C112.727 22.6849 113.842 22.2214 114.769 21.7422C114.316 21.4297 113.6 21.1198 112.621 20.8125C111.641 20.5052 110.631 20.3516 109.589 20.3516H108.675V18.8984H109.667C110.626 18.8984 111.675 19.0807 112.816 19.4453C113.957 19.8099 115.061 20.3255 116.128 20.9922L117.699 20.1953V21.6641C117.345 21.8724 116.944 22.0964 116.496 22.3359C116.048 22.5703 115.579 22.7995 115.089 23.0234C115.209 23.2526 115.384 23.4401 115.613 23.5859C115.842 23.7266 116.165 23.7969 116.582 23.7969H118.582V25.2656H116.613C115.884 25.2656 115.282 25.1302 114.808 24.8594C114.339 24.5833 114.029 24.1536 113.878 23.5703ZM112.824 17.5391H111.667V16.3828H112.824V17.5391ZM122.027 21.7266C122.027 22.8359 121.764 23.7031 121.238 24.3281C120.712 24.9531 119.988 25.2656 119.066 25.2656H118.042V23.7969H119.105C119.636 23.7969 120.04 23.6068 120.316 23.2266C120.592 22.8464 120.73 22.3151 120.73 21.6328V19.6641H122.027V21.7266ZM119.566 26.9375H118.41V25.7812H119.566V26.9375ZM121.878 26.9375H120.722V25.7812H121.878V26.9375ZM120.722 28.5703H119.566V27.4141H120.722V28.5703Z" fill="#FF0000"/>
<g clip-path="url(#clip0)">
<mask id="path-3-inside-1" fill="white">
<path d="M43.3586 32.7105H5.05493V7.90997H24.7456H43.3586V32.7105ZM6.66885 31.0966H41.7446V9.52388H6.66885V31.0966Z"/>
</mask>
<path d="M43.3586 32.7105H5.05493V7.90997H24.7456H43.3586V32.7105ZM6.66885 31.0966H41.7446V9.52388H6.66885V31.0966Z" fill="#FF0000"/>
<path d="M24.7456 7.90997L22.3571 9.65634L24.6039 12.7293L27.0274 9.79361L24.7456 7.90997ZM27.1341 6.16359L18.7955 -5.24101L14.0185 -1.74825L22.3571 9.65634L27.1341 6.16359ZM27.0274 9.79361L36.4419 -1.61099L31.8783 -5.37827L22.4637 6.02632L27.0274 9.79361ZM43.3586 32.7105V38.6282H49.2763V32.7105H43.3586ZM5.05493 32.7105H-0.862765V38.6282H5.05493V32.7105ZM5.05493 7.90997V1.99227H-0.862765V7.90997H5.05493ZM43.3586 7.90997H49.2763V1.99227H43.3586V7.90997ZM6.66885 31.0966H0.751153V37.0143H6.66885V31.0966ZM41.7446 31.0966V37.0143H47.6623V31.0966H41.7446ZM41.7446 9.52388H47.6623V3.60619H41.7446V9.52388ZM6.66885 9.52388V3.60619H0.751153V9.52388H6.66885ZM43.3586 26.7928H5.05493V38.6282H43.3586V26.7928ZM10.9726 32.7105V7.90997H-0.862765V32.7105H10.9726ZM37.4409 7.90997V32.7105H49.2763V7.90997H37.4409ZM6.66885 37.0143H41.7446V25.1789H6.66885V37.0143ZM47.6623 31.0966V9.52388H35.827V31.0966H47.6623ZM41.7446 3.60619H6.66885V15.4416H41.7446V3.60619ZM0.751153 9.52388V31.0966H12.5865V9.52388H0.751153ZM5.05493 13.8277H24.7456V1.99227H5.05493V13.8277ZM24.7456 13.8277H43.3586V1.99227H24.7456V13.8277Z" fill="#FF0000" mask="url(#path-3-inside-1)"/>
<path d="M23.6745 39.4347V32.1721H24.7504V39.4347H23.6745Z" fill="#FF0000" stroke="#FF0000" stroke-width="0.537972"/>
<path d="M18.0766 40.2409V39.165H30.3424V40.2409H18.0766Z" fill="#FF0000" stroke="#FF0000" stroke-width="0.537972"/>
<line x1="10.07" y1="0.710108" x2="17.0636" y2="8.24172" stroke="#FF0000" stroke-width="1.07594"/>
<line x1="16.2883" y1="8.22629" x2="21.668" y2="2.84656" stroke="#FF0000" stroke-width="1.07594"/>
<rect x="6.16797" y="9.25391" width="35.7787" height="22.2075" fill="#FF0000"/>
<path d="M20.4414 25.287V15.6035L30.1249 20.4453L20.4414 25.287Z" fill="white" stroke="white" stroke-width="0.537972"/>
</g>
<defs>
<clipPath id="clip0">
<rect width="48.4175" height="46.2656" fill="white"/>
</clipPath>
</defs>
</svg>
