<svg width="83" height="30" viewBox="0 0 83 30" fill="none" xmlns="http://www.w3.org/2000/svg">
<g clip-path="url(#clip0)">
<path d="M11.1531 4.96362L11.1656 4.91112L11.1988 4.68987L9.66325 4.68237C8.27715 4.67487 7.85178 4.68237 7.81443 4.71424C7.79575 4.72924 7.31643 6.37362 6.4636 9.35112C6.0569 10.7724 5.71453 11.9067 5.70208 11.873C5.68963 11.8392 5.20408 10.2174 4.61893 8.26924C4.26859 7.07813 3.90614 5.88996 3.53163 4.70487C3.51088 4.68612 1.65168 4.67862 0.145227 4.68987C-0.0726484 4.69174 -0.195073 4.30549 2.09158 10.8755C2.40698 11.7849 2.88215 13.073 3.1436 13.7367C3.44655 14.5017 3.66235 15.0942 3.80968 15.5874C4.07113 16.5267 4.07943 17.1155 4.0234 17.8036C3.957 18.5967 3.9487 24.203 4.01303 24.2967C4.06283 24.368 6.9699 24.4017 7.24588 24.3342C7.28945 24.323 7.3185 24.2855 7.33925 24.0736C7.40773 23.8917 7.41395 23.1661 7.41395 20.1549V16.3092L7.6007 15.7786C7.72313 15.4317 8.02815 14.5186 8.2813 13.7499L8.95983 11.7061C10.0575 8.47362 11.1033 5.29549 11.1324 5.11362L11.1552 4.96549L11.1531 4.96362Z" fill="#3B4B5C"/>
<path d="M27.4361 9.62727V9.82789H27.4009L27.3822 15.3648L27.3635 20.7329L26.8883 21.1698C26.3551 21.6591 25.9297 21.8466 25.5437 21.7585C25.1225 21.6629 25.135 21.811 25.0997 15.466L25.0665 9.62539H22.0079V9.82602H21.9727V16.1635C21.9727 22.9529 21.9727 22.9491 22.3545 23.6298C22.6574 24.1735 23.1015 24.4379 23.8588 24.5279C24.8569 24.6479 25.9338 24.2391 26.9319 23.3616L27.3656 22.981V23.6391C27.3656 24.2073 27.3843 24.301 27.4984 24.3291C27.6851 24.376 30.0008 24.3798 30.2498 24.3329L30.4573 24.2935V24.0985L30.4926 24.0929V9.58789L27.4382 9.62539L27.4361 9.62727Z" fill="#3B4B5C"/>
<path d="M19.6712 12.4893C19.3807 11.3662 18.8391 10.6106 17.9448 10.0893C16.5421 9.26993 14.9381 9.1818 13.4524 9.84555C12.3693 10.3293 11.67 11.1318 11.311 12.3093C11.2649 12.4509 11.2323 12.5958 11.2135 12.7424C11.1222 13.1587 11.1118 13.7774 11.0869 16.6668C11.0496 21.1181 11.1077 21.6468 11.724 22.6574C12.3299 23.6493 13.5852 24.3768 14.9527 24.5268C15.3635 24.5718 16.1977 24.5024 16.6791 24.3806C17.7684 24.1068 18.8142 23.3287 19.277 22.4456C19.4807 22.0919 19.6135 21.7085 19.6691 21.3131C19.804 20.6512 19.8144 19.5787 19.8144 16.8487C19.8144 13.3668 19.8019 12.9862 19.6733 12.4874L19.6712 12.4893ZM16.1831 21.5624C15.8677 21.7487 15.4836 21.8148 15.1145 21.7462C14.8344 21.6918 14.4547 21.2943 14.3385 20.9324C14.1932 20.4806 14.1828 14.1937 14.3073 12.9618C14.5148 12.3449 15.0917 12.0224 15.7225 12.1762C16.2143 12.2962 16.4653 12.5737 16.6085 13.1568C16.7143 13.5899 16.7268 14.1281 16.704 17.2949C16.6894 19.3949 16.6811 20.4224 16.6044 20.9737C16.5276 21.3206 16.3989 21.4143 16.1831 21.5643V21.5624Z" fill="#3B4B5C"/>
<path d="M74.5844 15.6499H76.0618L76.039 14.4405C76.0162 13.3305 75.9975 13.2049 75.8336 12.903C75.5742 12.4287 75.1924 12.2168 74.5865 12.2168C73.8582 12.2168 73.3975 12.5355 73.1796 13.188C73.0863 13.4655 72.9887 15.3762 73.0593 15.5412C73.0987 15.633 73.3104 15.6499 74.5844 15.6499Z" fill="#FF0000"/>
<path d="M64.7019 12.8971C64.614 12.7304 64.4726 12.5915 64.296 12.4985C64.1195 12.4055 63.916 12.3628 63.7121 12.3758C63.326 12.4025 62.9582 12.5353 62.6581 12.7565L62.3945 12.9383V21.6271L62.6581 21.809C63.2556 22.2215 63.9113 22.3077 64.3637 22.034C64.5511 21.9144 64.6874 21.7403 64.7496 21.5408C64.8679 21.2333 64.8783 20.8377 64.8638 17.1815C64.8472 13.3715 64.8389 13.1465 64.7019 12.8971Z" fill="#FF0000"/>
<path d="M83.0291 8.98444C82.7345 5.79506 82.5 4.76006 81.7738 3.43069C80.8089 1.67007 79.4166 0.74194 77.4329 0.537565C75.8994 0.380065 70.1268 0.15694 64.7878 0.0500653C55.5416 -0.13556 40.3402 0.222565 38.398 0.67069C37.5312 0.862917 36.7434 1.27543 36.1279 1.85944C34.9016 2.96194 34.1691 4.54444 33.8765 6.73444C33.2063 11.7332 33.1918 17.7707 33.8371 22.9513C34.1152 25.1788 34.6879 26.6263 35.7627 27.8188C36.4329 28.5632 37.5908 29.1951 38.6241 29.3844C39.3504 29.5176 42.9816 29.7013 48.2729 29.8719C49.0614 29.8982 51.1468 29.9413 52.9105 29.9694C56.5833 30.0276 63.3374 29.9938 67.199 29.8963C69.7969 29.8307 74.532 29.6563 75.418 29.5944C75.667 29.5776 76.2439 29.5438 76.7004 29.5213C78.2338 29.4426 79.2091 29.1538 80.1241 28.5032C81.309 27.6613 82.2261 26.1069 82.6141 24.2826C82.9814 22.5576 83.2263 19.4844 83.2761 15.9951C83.3176 13.0794 83.2615 11.5082 83.0291 8.98069V8.98444ZM46.2103 7.82944L44.4922 7.84819L44.4175 24.4044L42.9277 24.4213C41.7761 24.4363 41.4254 24.4194 41.3984 24.3538C41.3777 24.3069 41.3548 20.5738 41.3445 16.0588L41.3258 7.84819L37.9705 7.81069V5.22319L47.8869 5.25881L47.9284 7.80881L46.2103 7.82756V7.82944ZM56.7451 17.3188V24.4382H54.031V23.6882C54.031 23.1238 54.0082 22.9382 53.9335 22.9382C53.8795 22.9382 53.6347 23.1238 53.3878 23.3507C52.8503 23.8438 52.2154 24.2394 51.6717 24.4232C50.5471 24.8038 49.4805 24.5807 49.0261 23.8738C48.609 23.2269 48.6028 23.0807 48.6028 16.3644V10.1957H51.3148L51.3356 16.0044C51.3563 21.7119 51.3584 21.8169 51.5099 22.0494C51.7112 22.3569 52.0162 22.4413 52.5017 22.3194C52.7881 22.2482 52.9831 22.1226 53.4459 21.7063L54.031 21.1813V10.1957H56.7451V17.3151V17.3188ZM67.3318 23.4219C67.0931 23.9038 66.5599 24.3744 66.122 24.4907C64.9829 24.7944 64.0678 24.5469 63.0116 23.6488C62.6838 23.3694 62.3787 23.1444 62.3331 23.1444C62.2771 23.1444 62.248 23.3619 62.248 23.7913V24.4382H59.5339V5.22319H62.248V8.35819C62.248 10.0813 62.2729 11.4932 62.304 11.4932C62.3352 11.4932 62.6215 11.2644 62.9411 10.9869C63.6756 10.3476 64.2877 10.0663 65.0659 10.0138C66.454 9.91819 67.282 10.5651 67.6596 12.0388C67.7779 12.4982 67.7883 13.0232 67.7883 17.2851C67.7883 22.4751 67.7883 22.4976 67.3297 23.4219H67.3318ZM78.8169 20.5719C78.8028 21.0294 78.7494 21.4851 78.6571 21.9351C78.2795 23.1988 77.2752 24.0951 75.8227 24.4626C73.868 24.9576 71.7142 24.1476 70.8551 22.5932C70.3737 21.7213 70.355 21.5469 70.355 17.2851C70.355 13.8107 70.3696 13.3832 70.492 12.9088C70.8406 11.5682 71.7038 10.7001 73.1667 10.2182C73.59 10.0794 74.0319 10.0063 74.4739 9.99881C76.053 9.96881 77.6175 10.7357 78.2753 11.9844C78.7173 12.8263 78.7733 13.1882 78.8169 15.5619L78.8563 17.6919L73.0691 17.7276L73.0484 19.1582C73.0173 21.1776 73.1687 21.7982 73.7726 22.1638C74.2789 22.4732 75.0591 22.4488 75.4824 22.1132C75.8808 21.7982 75.9928 21.4588 76.0322 20.4688L76.0675 19.6007H78.8625L78.8169 20.5719Z" fill="#FF0000"/>
</g>
<defs>
<clipPath id="clip0">
<rect width="83" height="30" fill="white"/>
</clipPath>
</defs>
</svg>
